module gitlab.com/vikingshield/dcrd-txscript

go 1.15

require (
	github.com/dchest/siphash v1.2.1
	github.com/decred/dcrd/chaincfg/chainhash v1.0.2
	github.com/decred/dcrd/chaincfg/v3 v3.0.0
	github.com/decred/dcrd/crypto/ripemd160 v1.0.1
	github.com/decred/dcrd/dcrec v1.0.0
	github.com/decred/dcrd/dcrec/edwards/v2 v2.0.1
	github.com/decred/dcrd/dcrec/secp256k1/v3 v3.0.0
	github.com/decred/dcrd/dcrutil/v3 v3.0.0
	github.com/decred/dcrd/txscript/v3 v3.0.0
	github.com/decred/dcrd/wire v1.4.0
	github.com/decred/slog v1.1.0
)
